R软件使用介绍
…
- 查看数据

```r
#names(NHANES)#查看变量名
#head(NHANES,n=3)#查看数据前3行
#tail(NHANES,n=3)#查看数据后3行
NHANES #查看数据框的大小，变量名，类型和取值
```

```
## # A tibble: 10,000 × 76
##       ID SurveyYr Gender   Age AgeDecade AgeMonths Race1 Race3 Education   
##    <int> <fct>    <fct>  <int> <fct>         <int> <fct> <fct> <fct>       
##  1 51624 2009_10  male      34 " 30-39"        409 White <NA>  High School 
##  2 51624 2009_10  male      34 " 30-39"        409 White <NA>  High School 
##  3 51624 2009_10  male      34 " 30-39"        409 White <NA>  High School 
##  4 51625 2009_10  male       4 " 0-9"           49 Other <NA>  <NA>        
##  5 51630 2009_10  female    49 " 40-49"        596 White <NA>  Some College
##  6 51638 2009_10  male       9 " 0-9"          115 White <NA>  <NA>        
##  7 51646 2009_10  male       8 " 0-9"          101 White <NA>  <NA>        
##  8 51647 2009_10  female    45 " 40-49"        541 White <NA>  College Grad
##  9 51647 2009_10  female    45 " 40-49"        541 White <NA>  College Grad
## 10 51647 2009_10  female    45 " 40-49"        541 White <NA>  College Grad
## # ℹ 9,990 more rows
## # ℹ 67 more variables: MaritalStatus <fct>, HHIncome <fct>, HHIncomeMid <int>,
## #   Poverty <dbl>, HomeRooms <int>, HomeOwn <fct>, Work <fct>, Weight <dbl>,
## #   Length <dbl>, HeadCirc <dbl>, Height <dbl>, BMI <dbl>,
## #   BMICatUnder20yrs <fct>, BMI_WHO <fct>, Pulse <int>, BPSysAve <int>,
## #   BPDiaAve <int>, BPSys1 <int>, BPDia1 <int>, BPSys2 <int>, BPDia2 <int>,
## #   BPSys3 <int>, BPDia3 <int>, Testosterone <dbl>, DirectChol <dbl>, …
```
…
